<?xml version="1.0" standalone="no"?>
<!DOCTYPE svg PUBLIC "-//W3C//DTD SVG 20010904//EN"
 "http://www.w3.org/TR/2001/REC-SVG-20010904/DTD/svg10.dtd">
<svg version="1.0" xmlns="http://www.w3.org/2000/svg"
 width="1678.000000pt" height="380.000000pt" viewBox="0 0 1678.000000 380.000000"
 preserveAspectRatio="xMidYMid meet">

<g transform="translate(0.000000,380.000000) scale(0.100000,-0.100000)"
fill="#000000" stroke="none">
<path d="M14711 3760 c0 -8 6 -24 14 -34 19 -25 19 -9 0 24 -8 14 -14 19 -14
10z"/>
<path d="M2652 3565 c0 -16 2 -22 5 -12 2 9 2 23 0 30 -3 6 -5 -1 -5 -18z"/>
<path d="M2640 3460 c0 -50 -37 -220 -69 -321 -78 -242 -207 -426 -401 -571
-82 -61 -224 -148 -242 -148 -6 0 -46 33 -87 74 -92 88 -156 123 -254 136 -39
5 -109 14 -154 21 -57 7 -87 8 -101 0 -11 -6 -98 -11 -208 -12 -204 -2 -318
11 -498 57 -99 25 -126 22 -126 -10 0 -46 179 -136 370 -187 l45 -12 -40 -9
c-22 -5 -124 -11 -228 -15 l-187 -6 0 -24 c0 -32 41 -69 101 -88 74 -25 205
-44 286 -41 40 1 69 -1 65 -5 -11 -10 -127 -38 -236 -57 -105 -19 -132 -35
-107 -66 24 -29 90 -39 220 -32 69 3 155 11 193 17 38 6 72 9 74 6 6 -6 -190
-70 -296 -97 -96 -24 -121 -40 -100 -64 34 -43 202 -47 407 -11 70 12 129 21
131 20 4 -4 -101 -35 -116 -35 -18 0 -24 -20 -11 -36 10 -12 -3 -30 -82 -107
-129 -125 -209 -221 -296 -353 -98 -149 -107 -179 -100 -313 7 -121 41 -256
106 -415 40 -96 128 -270 158 -311 14 -19 15 -18 9 15 -16 97 -36 305 -36 380
0 254 62 515 167 705 78 141 202 307 203 273 0 -26 41 -33 170 -32 l115 2 -67
-21 c-102 -31 -87 -60 39 -75 66 -8 67 -9 41 -22 -31 -15 -36 -35 -12 -44 9
-3 57 -6 107 -6 l92 0 -35 -18 c-19 -9 -37 -26 -38 -36 -4 -18 2 -19 87 -14
89 5 91 5 75 -13 -15 -17 -15 -19 0 -25 9 -3 30 -4 46 -2 17 3 30 3 30 1 0 -2
-16 -27 -35 -56 -19 -28 -35 -62 -35 -74 0 -13 -17 -41 -37 -64 -66 -73 -291
-263 -477 -404 -19 -15 -24 -24 -17 -34 8 -12 16 -13 45 -4 29 9 38 8 48 -4 8
-10 22 -13 44 -9 24 5 33 2 38 -10 5 -14 15 -15 55 -10 30 4 52 2 56 -4 10
-15 72 -12 108 6 18 9 54 34 80 55 42 33 51 37 68 26 16 -10 25 -9 50 6 17 9
38 17 47 17 9 0 36 13 58 28 23 15 49 32 59 37 23 14 54 110 55 173 l0 52 38
0 c34 -1 44 -9 117 -87 169 -181 190 -198 256 -217 40 -11 66 -13 72 -7 14 14
37 2 37 -19 0 -10 -7 -23 -15 -30 -22 -18 -18 -54 10 -84 13 -14 28 -26 32
-26 5 0 17 -15 28 -33 21 -36 33 -47 54 -47 11 0 11 3 0 16 -9 11 -9 18 -2 22
6 4 13 20 15 37 4 37 36 55 100 55 39 0 54 -6 80 -29 29 -26 32 -32 20 -50
-11 -19 -10 -21 12 -21 14 0 30 10 40 25 21 32 21 113 -1 137 -9 10 -21 28
-27 41 -12 23 -22 24 -213 26 -59 1 -93 24 -93 64 0 39 -28 122 -55 161 -13
20 -32 66 -40 103 -9 36 -24 85 -34 109 -17 37 -17 45 -5 61 7 10 21 39 29 65
13 38 22 49 49 58 18 6 46 24 61 40 32 33 45 38 45 15 0 -23 17 -18 66 17 59
42 135 49 212 19 29 -12 64 -21 77 -21 28 0 45 -26 45 -69 0 -43 13 -39 38 13
36 71 28 117 -31 183 -19 21 -44 56 -55 78 -28 55 -57 80 -126 105 -32 12 -98
49 -147 83 -49 33 -92 57 -96 53 -3 -3 -1 -18 5 -32 12 -24 11 -25 -10 -18
-13 4 -56 8 -97 9 -91 2 -101 13 -101 100 0 75 18 140 70 247 45 92 50 136 20
163 -32 29 -116 7 -198 -53 -86 -61 -167 -110 -265 -159 l-79 -38 -19 24 c-10
13 -19 27 -19 31 0 4 33 29 73 55 358 237 526 481 592 862 19 107 29 213 21
213 -3 0 -6 -13 -6 -30z m-1998 -785 c114 -27 287 -55 345 -55 27 0 45 -7 61
-25 13 -14 42 -30 64 -37 l40 -12 -38 -11 c-28 -8 -39 -16 -37 -29 1 -17 -5
-18 -70 -11 -191 18 -487 134 -487 191 0 18 1 18 122 -11z m890 -54 c82 -12
144 -28 174 -43 72 -36 171 -134 261 -259 90 -127 204 -256 301 -339 74 -64
100 -102 110 -162 6 -35 12 -44 31 -46 19 -3 22 -8 17 -28 -5 -18 0 -27 19
-40 14 -9 25 -25 25 -35 0 -11 7 -22 15 -25 8 -4 15 -17 15 -30 0 -18 5 -24
22 -24 19 0 20 -2 7 -12 -9 -7 -21 -31 -27 -53 -7 -22 -28 -62 -47 -88 l-36
-48 -26 31 c-34 41 -42 31 -10 -12 30 -40 80 -139 97 -193 7 -22 35 -69 61
-105 27 -36 53 -77 58 -92 9 -25 7 -28 -11 -28 -14 0 -18 -5 -14 -15 4 -11 -1
-15 -19 -15 -14 0 -25 -4 -25 -10 0 -20 -26 -9 -57 25 -18 19 -34 35 -37 35
-3 0 -6 -10 -8 -23 -3 -20 -10 -16 -71 42 -37 35 -67 68 -67 73 0 5 5 6 10 3
6 -3 10 -2 10 3 0 5 -22 23 -48 40 -49 31 -129 110 -149 147 -7 11 -15 17 -19
13 -4 -4 -1 -14 6 -23 18 -21 9 -27 -49 -33 -67 -6 -85 1 -71 28 11 20 9 21
-26 14 l-38 -7 17 26 17 27 -29 0 c-38 0 -48 16 -26 40 16 18 15 19 -26 22
-53 4 -61 23 -27 63 18 20 35 28 68 30 25 2 50 -1 57 -7 24 -20 114 20 166 74
26 28 47 54 47 60 0 5 -49 6 -124 2 -92 -5 -125 -4 -131 5 -4 8 1 19 14 27 12
8 21 19 21 23 0 4 -34 13 -76 19 -41 7 -87 18 -102 26 l-27 15 53 22 c28 13
52 26 52 30 0 4 -21 11 -47 15 -77 11 -175 44 -170 57 2 6 25 18 50 25 26 7
47 17 47 21 0 5 -27 11 -60 14 -119 13 -133 24 -75 58 42 25 37 39 -13 40 -53
1 -135 22 -139 35 -2 6 15 20 39 30 l43 18 -55 9 c-30 5 -72 14 -94 19 -33 8
-37 12 -25 23 8 7 29 17 48 22 19 5 36 14 39 21 2 7 -2 10 -10 7 -18 -7 -131
28 -136 43 -2 7 12 14 38 18 22 4 39 11 37 17 -1 5 -42 22 -91 36 -48 14 -88
31 -87 36 0 6 23 14 51 19 27 5 50 12 50 15 0 3 -47 29 -103 56 -56 28 -101
55 -100 60 2 6 38 12 80 15 l78 5 -94 35 c-52 19 -96 40 -98 46 -6 17 80 25
178 18 60 -5 88 -3 93 5 10 15 50 14 198 -8z m1006 -114 c3 -29 -7 -59 -42
-127 -51 -103 -71 -182 -63 -257 l5 -52 -41 -5 c-23 -3 -74 -7 -112 -10 l-71
-4 7 74 c8 85 20 126 60 206 32 63 33 68 20 68 -27 0 -100 -212 -101 -292 0
-16 -4 -28 -9 -28 -9 0 -109 110 -155 172 l-27 36 101 52 c55 29 144 82 198
117 118 80 147 93 192 90 33 -2 35 -4 38 -40z m-1358 -74 l74 -37 -33 -9 c-19
-4 -43 -14 -55 -22 -29 -19 -216 -45 -322 -45 -146 0 -292 32 -338 73 -49 43
-42 45 139 51 94 4 202 13 240 20 112 23 205 13 295 -31z m80 -124 c58 -20 62
-23 42 -32 -39 -18 -27 -44 30 -65 l52 -19 -27 -18 c-49 -31 -30 -50 71 -70
31 -6 32 -8 18 -24 -9 -10 -16 -22 -16 -28 0 -13 39 -30 87 -38 74 -13 76 -14
51 -35 -34 -28 -14 -52 52 -65 51 -10 52 -11 26 -23 -58 -26 -20 -63 92 -88
l73 -16 -30 -19 c-17 -10 -31 -26 -31 -34 0 -20 51 -42 118 -51 29 -3 52 -8
52 -10 0 -3 -6 -13 -12 -24 -23 -36 2 -45 123 -43 l109 2 -16 -30 c-10 -21
-33 -38 -70 -55 -61 -27 -81 -31 -44 -8 24 14 23 15 -24 9 -27 -4 -56 -9 -65
-13 -14 -5 -14 -4 -2 12 14 17 11 17 -60 11 l-74 -7 34 22 c18 11 31 23 29 25
-2 3 -50 1 -107 -3 -56 -4 -104 -5 -106 -1 -2 3 22 16 53 29 92 37 87 42 -38
40 -191 -3 -197 0 -80 41 36 12 69 25 73 29 5 4 -43 5 -105 3 -74 -3 -123 -1
-143 7 l-30 12 73 23 c120 38 137 65 35 54 -97 -11 -225 -10 -243 1 -13 9 -13
11 0 20 8 5 23 10 33 10 31 0 171 59 202 85 37 30 34 30 -128 9 -126 -16 -211
-13 -242 10 -15 11 -4 17 81 44 96 30 145 54 133 66 -3 3 -68 -8 -144 -24
-176 -36 -326 -54 -387 -46 -55 8 -108 25 -108 36 0 4 53 22 118 40 170 47
424 140 430 158 1 5 -32 1 -75 -9 -179 -43 -479 -64 -538 -37 -20 9 -36 38
-21 38 31 0 295 56 358 76 181 59 210 61 318 23z m1317 -285 c12 -2 27 -13 33
-24 10 -18 8 -20 -25 -20 -42 0 -44 -13 -7 -45 26 -23 26 -24 5 -25 -28 0 -53
-10 -53 -21 0 -4 12 -15 26 -22 l27 -14 -32 -11 c-42 -15 -39 -36 7 -48 l37
-10 -27 -14 c-38 -18 -36 -40 4 -40 30 0 31 -1 14 -19 -21 -23 -14 -41 15 -41
14 0 18 -6 16 -21 -4 -26 -41 -48 -81 -49 -25 0 -28 3 -24 25 4 18 0 26 -14
31 -14 4 -19 13 -16 29 4 19 0 24 -25 29 -21 4 -27 10 -23 21 3 8 9 22 12 30
4 9 -3 16 -20 21 -29 7 -34 25 -11 44 21 18 19 27 -10 34 -26 7 -34 31 -12 39
8 3 1 14 -18 31 l-30 25 28 1 c27 0 36 13 17 25 -21 13 -9 25 25 25 39 0 42 5
20 30 -15 16 -12 17 52 3 37 -8 78 -17 90 -19z m314 -90 c56 -21 77 -35 100
-67 16 -22 29 -43 29 -47 0 -4 -12 -15 -26 -25 -15 -9 -23 -12 -19 -6 16 27
-43 65 -120 75 -42 6 -48 5 -34 -6 8 -7 23 -25 31 -39 9 -14 30 -31 46 -38
l29 -12 -16 -34 c-14 -30 -21 -34 -52 -35 -51 0 -128 -25 -145 -47 -13 -16
-13 -16 -8 0 7 20 4 20 -30 7 -25 -9 -37 2 -16 15 22 13 8 23 -25 18 -19 -3
-35 -3 -35 1 0 3 15 20 33 37 l32 30 -45 -6 c-42 -6 -44 -6 -25 9 11 8 26 16
33 16 17 0 15 17 -4 24 -9 3 -32 6 -52 6 -42 0 -34 14 16 27 41 10 41 25 -1
39 l-32 12 43 7 c50 9 52 18 12 42 -42 24 -37 33 11 22 23 -6 44 -7 47 -4 3 3
-10 21 -28 40 -36 37 -32 44 10 20 14 -8 33 -14 44 -15 17 0 17 1 2 25 -9 13
-16 27 -16 30 0 3 32 -17 71 -44 39 -27 102 -62 140 -77z m-486 96 c-3 -5 -13
-10 -21 -10 -8 0 -14 -9 -14 -20 0 -11 -7 -23 -15 -26 -22 -9 -18 -30 8 -49
12 -10 17 -15 10 -14 -12 4 -133 117 -133 125 0 2 39 4 86 4 54 0 83 -4 79
-10z m-975 -105 c0 -10 -79 -44 -150 -64 l-74 -21 36 36 c30 30 45 38 94 44
80 10 94 11 94 5z m1450 -84 c0 -17 -18 -21 -24 -6 -3 9 0 15 9 15 8 0 15 -4
15 -9z m40 -36 c19 -20 20 -25 7 -25 -20 0 -49 29 -42 41 8 12 8 12 35 -16z
m146 -47 c43 -52 57 -94 44 -134 -12 -35 -30 -46 -30 -18 0 25 -45 83 -91 117
-38 28 -41 32 -22 35 12 2 27 10 33 18 19 22 36 17 66 -18z m-58 -71 c12 -11
22 -24 22 -28 0 -9 -55 5 -87 23 -22 11 -30 37 -16 51 7 8 46 -14 81 -46z
m-528 -319 c10 -24 24 -70 31 -103 7 -33 18 -67 24 -75 18 -21 57 -101 53
-106 -9 -8 -79 99 -94 143 -9 27 -27 69 -40 96 -19 37 -22 52 -14 67 15 28 19
26 40 -22z m-634 22 c9 0 12 -4 9 -10 -10 -17 -55 -12 -55 6 0 11 5 14 16 10
9 -3 22 -6 30 -6z m4 -45 c0 -16 -61 -86 -142 -163 -76 -71 -166 -141 -268
-207 -156 -101 -226 -118 -98 -24 120 89 247 197 353 300 87 85 111 102 148
108 4 0 7 -6 7 -14z m25 -5 c3 -5 1 -10 -4 -10 -6 0 -11 5 -11 10 0 6 2 10 4
10 3 0 8 -4 11 -10z m-3 -72 c-118 -165 -373 -366 -487 -385 -52 -8 -43 9 28
52 115 71 246 174 355 280 119 116 167 141 104 53z m16 -75 c-140 -173 -343
-333 -421 -333 -40 0 -30 19 24 48 123 68 271 189 340 279 38 48 95 90 108 77
2 -2 -21 -34 -51 -71z m152 -16 c0 -45 -6 -75 -22 -107 -35 -67 -50 -62 -28 9
11 33 22 83 26 111 9 70 24 62 24 -13z m-81 16 c-67 -112 -126 -182 -208 -247
-111 -88 -156 -110 -195 -96 -15 5 -3 17 65 65 81 56 199 167 285 268 23 26
49 47 58 47 16 0 15 -4 -5 -37z m37 -24 c-14 -102 -63 -199 -101 -199 -12 0
-10 9 10 38 19 29 85 191 85 209 0 2 3 3 6 3 4 0 4 -23 0 -51z m-85 -118 c-26
-51 -79 -111 -97 -111 -26 0 -14 21 46 87 33 36 60 71 61 77 0 7 2 7 5 -1 3
-6 -4 -30 -15 -52z m712 -88 c8 -7 -11 -33 -24 -33 -4 0 -7 9 -6 20 1 20 17
27 30 13z m14 -29 c-8 -9 16 -33 27 -26 5 3 7 -2 3 -11 -3 -9 0 -18 9 -21 8
-3 14 -1 14 4 0 6 5 10 10 10 6 0 10 -9 10 -19 0 -10 7 -21 15 -25 9 -3 15 0
15 9 0 8 5 15 10 15 22 0 9 -38 -15 -44 -13 -3 -33 -16 -44 -27 -20 -21 -36
-13 -21 10 8 14 -17 69 -46 102 -14 16 -10 29 9 29 6 0 8 -3 4 -6z m233 -13
c0 -18 -154 -21 -171 -4 -10 10 -8 12 9 8 12 -2 27 -7 32 -10 6 -3 10 -1 10 6
0 8 4 8 15 -1 10 -8 15 -9 15 -1 0 7 8 8 25 1 17 -6 25 -6 25 1 0 6 5 7 10 4
6 -3 10 -1 10 5 0 6 5 8 10 5 6 -3 10 -10 10 -14z m45 -1 c3 -5 1 -10 -4 -10
-6 0 -11 5 -11 10 0 6 2 10 4 10 3 0 8 -4 11 -10z m-302 -51 c-4 -13 -9 -17
-16 -10 -12 12 -1 45 12 37 5 -3 7 -15 4 -27z m27 -54 c-21 -25 -28 -17 -16
20 10 32 12 33 20 15 6 -13 5 -25 -4 -35z m210 25 c0 -5 -9 -6 -20 -3 -20 5
-25 15 -13 26 7 8 33 -11 33 -23z m105 19 c11 -17 -1 -21 -15 -4 -8 9 -8 15
-2 15 6 0 14 -5 17 -11z m-365 -14 c7 -9 10 -18 7 -22 -8 -7 -37 15 -37 28 0
14 16 11 30 -6z m210 7 c0 -5 -7 -9 -15 -9 -8 0 -12 4 -9 9 3 4 9 8 15 8 5 0
9 -4 9 -8z m90 -1 c0 -12 -20 -25 -27 -18 -7 7 6 27 18 27 5 0 9 -4 9 -9z m41
-17 c12 -15 11 -16 -11 -11 -14 4 -19 4 -12 1 6 -3 9 -11 5 -17 -4 -6 0 -8 10
-4 11 4 14 2 10 -9 -4 -10 0 -12 13 -7 12 4 15 3 10 -5 -12 -19 -33 -14 -50
12 -15 24 -13 56 4 56 4 0 14 -7 21 -16z m-266 -64 c18 -19 17 -20 -3 -20 -15
0 -22 6 -22 20 0 11 2 20 3 20 2 0 12 -9 22 -20z"/>
<path d="M3069 1702 c8 -6 11 -16 8 -24 -3 -8 -1 -21 4 -29 7 -10 9 -4 7 20
-2 20 -9 36 -18 38 -12 4 -13 3 -1 -5z"/>
<path d="M2945 3410 c14 -27 28 -50 30 -50 3 0 -6 23 -20 50 -14 28 -28 50
-30 50 -3 0 6 -22 20 -50z"/>
<path d="M3064 3183 c343 -686 492 -1144 447 -1375 -14 -69 -39 -124 -105
-225 -81 -128 -102 -210 -86 -352 29 -264 212 -795 315 -916 l26 -30 -6 50
c-3 28 1 108 10 180 9 72 13 145 10 164 -3 18 -24 73 -45 121 -110 250 -180
493 -180 625 0 69 5 92 36 165 76 181 88 275 59 454 -24 150 -93 352 -205 606
-77 175 -334 680 -346 680 -2 0 29 -66 70 -147z"/>
<path d="M5610 2296 c-67 -19 -103 -41 -140 -82 -45 -52 -60 -93 -60 -166 0
-111 55 -183 174 -226 28 -10 87 -31 131 -47 51 -18 92 -40 113 -61 28 -28 32
-39 32 -84 0 -97 -59 -151 -172 -158 -81 -5 -127 9 -175 54 -19 19 -39 34 -42
34 -3 -1 -24 -16 -45 -36 l-40 -34 33 -34 c59 -61 120 -81 246 -81 94 0 117 3
160 23 104 48 149 117 149 232 1 137 -57 198 -249 260 -159 52 -210 97 -202
179 8 78 66 128 159 138 69 7 126 -9 165 -47 l32 -31 41 37 41 37 -27 28 c-61
64 -219 96 -324 65z"/>
<path d="M9857 2300 c-87 -22 -162 -82 -191 -152 -24 -57 -21 -156 7 -209 32
-60 90 -97 236 -148 159 -56 191 -84 191 -164 0 -45 -5 -61 -26 -87 -40 -47
-93 -70 -164 -70 -71 0 -112 15 -163 59 l-36 32 -41 -32 c-22 -18 -40 -35 -40
-39 0 -16 70 -71 115 -91 67 -30 200 -38 277 -15 143 41 220 163 189 302 -22
97 -89 153 -246 204 -88 29 -154 62 -179 89 -11 12 -21 41 -23 68 -8 85 56
149 160 160 67 7 122 -10 163 -48 l30 -29 43 36 42 37 -27 28 c-58 60 -215 95
-317 69z"/>
<path d="M4200 1840 l0 -450 50 0 50 0 0 450 0 450 -50 0 -50 0 0 -450z"/>
<path d="M4500 1840 l0 -450 50 0 50 0 2 372 3 371 259 -371 260 -372 68 0 68
0 0 450 0 450 -55 0 -55 0 -2 -370 -3 -371 -258 371 -258 370 -65 0 -64 0 0
-450z"/>
<path d="M6030 2240 l0 -50 145 0 145 0 0 -400 0 -400 55 0 55 0 0 400 0 400
151 0 150 0 -3 48 -3 47 -347 3 -348 2 0 -50z"/>
<path d="M6820 1841 l0 -451 55 0 55 0 -2 448 -3 447 -52 3 -53 3 0 -450z"/>
<path d="M7020 2240 l0 -50 150 0 150 0 0 -400 0 -400 50 0 50 0 0 400 0 400
150 0 150 0 0 50 0 50 -350 0 -350 0 0 -50z"/>
<path d="M7812 1953 c3 -325 4 -340 26 -395 28 -68 88 -133 150 -161 73 -32
219 -36 296 -7 116 44 179 133 197 283 5 45 8 201 7 347 l-3 265 -52 3 -52 3
-3 -323 -3 -323 -27 -57 c-36 -77 -87 -111 -174 -116 -35 -2 -80 -1 -99 2 -44
9 -99 56 -128 110 -21 39 -22 56 -27 371 l-5 330 -53 3 -53 3 3 -338z"/>
<path d="M8580 2240 l0 -50 145 0 145 0 0 -400 0 -400 55 0 55 0 0 400 0 400
145 0 145 0 0 50 0 50 -345 0 -345 0 0 -50z"/>
<path d="M10653 2278 c-8 -10 -314 -701 -380 -856 l-14 -33 62 3 61 3 43 105
43 105 227 0 227 0 43 -105 43 -105 61 -3 c34 -2 61 1 61 5 -1 4 -85 206 -188
448 l-187 440 -46 3 c-29 2 -49 -2 -56 -10z m139 -353 l86 -215 -179 0 c-98 0
-179 3 -179 7 0 14 175 423 181 423 3 0 44 -97 91 -215z"/>
<path d="M11227 2283 c-4 -3 -7 -206 -7 -450 l0 -443 55 0 55 0 0 450 0 450
-48 0 c-27 0 -52 -3 -55 -7z"/>
<path d="M11520 1840 l0 -450 55 0 55 0 0 371 0 372 258 -369 257 -369 68 -3
67 -3 0 451 0 450 -50 0 -50 0 0 -371 c0 -296 -3 -369 -12 -361 -7 6 -125 173
-263 371 l-250 360 -67 1 -68 0 0 -450z"/>
<path d="M12380 2240 l0 -50 145 0 145 0 0 -400 0 -400 55 0 55 0 0 400 0 400
151 0 150 0 -3 48 -3 47 -347 3 -348 2 0 -50z"/>
<path d="M13770 1938 c0 -325 -2 -356 -19 -395 -24 -51 -63 -73 -130 -73 -57
0 -100 28 -121 80 -7 16 -14 30 -16 30 -2 0 -25 -5 -53 -11 -48 -10 -49 -11
-41 -38 31 -108 108 -161 233 -161 84 0 135 18 183 65 70 67 74 92 74 502 l0
353 -55 0 -55 0 0 -352z"/>
<path d="M14070 1840 l0 -450 295 0 295 0 0 50 0 50 -240 0 -240 0 0 160 0
160 210 0 210 0 0 50 0 50 -210 0 -210 0 0 140 0 140 225 0 225 0 0 50 0 50
-280 0 -280 0 0 -450z"/>
<path d="M14892 1857 c-105 -238 -194 -441 -198 -450 -5 -15 2 -17 53 -17 l60
0 45 108 44 107 226 3 225 2 45 -107 45 -108 61 -3 c34 -2 62 -1 62 1 0 2 -85
204 -189 448 l-189 444 -49 3 -49 3 -192 -434z m327 72 c46 -115 81 -212 79
-215 -3 -2 -84 -3 -180 -2 l-175 3 90 213 c50 116 93 212 96 212 3 0 44 -95
90 -211z"/>
<path d="M15650 1840 l0 -450 55 0 55 0 0 372 0 371 181 -259 c99 -142 215
-309 257 -371 l77 -112 68 0 67 -1 0 450 0 450 -50 0 -50 0 0 -371 c0 -222 -4
-368 -9 -365 -8 5 -192 267 -445 633 l-71 102 -67 1 -68 0 0 -450z"/>
</g>
</svg>
